{
  "data": [
    {
      "groupName": "Cửa hàng",
      "groupKey": "shop",
      "permissions": [
        {
          "key": "shopCreate",
          "name": "Thêm cửa hàng"
        },
        {
          "key": "shopGetList",
          "name": "Lấy danh sách cửa hàng"
        },
        {
          "key": "shopUpdate",
          "name": "Cập nhật thông tin cửa hàng"
        },
        {
          "key": "shopDelete",
          "name": "Xóa cửa hàng"
        },
        {
          "key": "shopStatisticalReceiveAndPayArea",
          "name": "Thống kê nạp rút theo khu vực"
        }
      ]
    },
    {
      "groupName": "Chủ cửa hàng",
      "groupKey": "shopOwner",
      "permissions": [
        {
          "key": "shopOwnerCreate",
          "name": "Thêm chủ cửa hàng"
        },
        {
          "key": "shopOwnerGetList",
          "name": "Lấy danh sách chủ cửa hàng"
        },
        {
          "key": "shopOwnerUpdate",
          "name": "Cập nhật thông tin chủ cửa hàng"
        },
        {
          "key": "shopOwnerDelete",
          "name": "Xóa chủ cửa hàng"
        }
      ]
    },
    {
      "groupName": "Tài khoản chủ cửa hàng",
      "groupKey": "shopOwnerAccount",
      "permissions": [
        {
          "name": "Lấy danh sách tài khoản chú cửa hàng",
          "key": "shopOwnerAccountGetList"
        }
      ]
    },
    {
      "groupName": "Yêu cầu nạp tiền của cửa hàng",
      "groupKey": "shopDeposit",
      "permissions": [
        {
          "name": "Thống kê yêu cầu nạp tiền của của cửa hàng",
          "key": "shopDepositStatistical"
        }
      ]
    },
    {
      "groupName": "Yêu cầu rút tiền của cửa hàng",
      "groupKey": "shopWithdraw",
      "permissions": [
        {
          "name": "Thống kê yêu cầu rút tiền của của cửa hàng",
          "key": "shopWithdrawStatistical"
        }
      ]
    },
    {
      "groupName": "Cài đặt khu vực kiểm định",
      "groupKey": "configSetInspectorArea",
      "permissions": [
        {
          "key": "configSetInspectorAreaCreate",
          "name": "Thêm cài đặt khu vực cho người kiểm định"
        },
        {
          "key": "configSetInspectorAreaGetList",
          "name": "Lấy danh sách cài đặt khu vực của người kiểm định"
        },
        {
          "key": "configSetInspectorAreaUpdate",
          "name": "Cập nhật khu vực cho người kiểm định"
        },
        {
          "key": "configSetInspectorAreaDelete",
          "name": "Xóa cài đặt khu vực của người kiểm định"
        }
      ]
    },
    {
      "groupName": "Người kiểm định",
      "groupKey": "inspectors",
      "permissions": [
        {
          "name": "Lấy danh sách người kiểm định",
          "key": "inspectorsGetList"
        },
        {
          "name": "Tạo người kiểm định",
          "key": "inspectorsCreate"
        },
        {
          "name": "Cập nhật người kiểm định",
          "key": "inspectorsUpdate"
        },
        {
          "name": "Xóa người kiểm định",
          "key": "inspectorsDelete"
        }
      ]
    }
  ]
}